Stan と R でベイズ統計モデリング 第四章 - easy cure
…
 2: q95 <- function(x) quantile(x, probs=c(0.025, 0.25, 0.5, 0.75, 0.975))
 3: files <- c('model4-4-1.csv',
 4:            'model4-4-2.csv',
 5:            'model4-4-3.csv',
 6:            'model4-4-4.csv')
 7: fit <- as_cmdstan_fit(files)
 8: df <- fit$summary(variables=c('y_base_new'),'mean','sd', q95)
 9: X_new <- 23:60
10: df$X_new <- X_new
11: print(df)
12: print(class(df$"50%"))  # 書き出すときはこれでもOKだが.
13: print(df$`50%`)  # ggplot の aes で使うときは `50%` (back quote?) を使う
14: print(X_new)

# A tibble: 38 × 9
   variable        mean    sd `2.5%` `25%` `50%` `75%` `97.5%` X_new
   <chr>          <dbl> <dbl>  <dbl> <dbl> <dbl> <dbl>   <dbl> <int>
 1 y_base_new[1]   386.  40.9   305.  360.  386.  412.    466.    23
 2 y_base_new[2]   408.  39.3   329.  383.  407.  432.    485.    24
 3 y_base_new[3]   429.  37.8   354.  405.  429.  453.    504.    25
 4 y_base_new[4]   451.  36.3   379.  428.  451.  474.    522.    26
 5 y_base_new[5]   473.  34.9   403.  451.  473.  495.    541.    27
 6 y_base_new[6]   495.  33.4   428.  474.  495.  516.    561.    28
 7 y_base_new[7]   517.  32.0   453.  497.  516.  537.    580.    29
 8 y_base_new[8]   538.  30.7   477.  519.  538.  558.    599.    30
 9 y_base_new[9]   560.  29.3   502.  542.  560.  579.    619.    31
10 y_base_new[10]  582.  28.0   526.  564.  582.  600.    638.    32
# … with 28 more rows
…
cmdstanpy の計算結果 csv ファイルを R (cmdstanr) で読み込むことも可能

1: library(cmdstanr)
2: files <-c('model4-4-20220331192118_1.csv',
3:           'model4-4-20220331192118_2.csv',
4:           'model4-4-20220331192118_3.csv',
5:           'model4-4-20220331192118_4.csv')
6: fit <- as_cmdstan_fit(files)
7: fit$summary()

# A tibble: 100 × 10
   variable    mean median    sd   mad     q5    q95  rhat ess_bulk ess_tail
   <chr>      <dbl>  <dbl> <dbl> <dbl>  <dbl>  <dbl> <dbl>    <dbl>    <dbl>
 1 lp__       -93.7  -93.3  1.46  1.12  -96.5 -92.2   1.00    1133.    1216.
 2 a         -116.  -117.  78.6  74.3  -242.    9.99  1.00    1248.    1240.
 3 b           21.8   21.8  1.75  1.62   19.0  24.6   1.00    1253.    1232.
 4 sigma       85.3   82.9 16.4  14.2    63.7 114.    1.00    1523.    1343.
 5 y_base[1]  408.   407.  39.3  37.1   346.  471.    1.00    1382.    1303.
 6 y_base[2]  408.   407.  39.3  37.1   346.  471.    1.00    1382.    1303.
 7 y_base[3]  451.   451.  36.3  34.0   394.  510.    1.00    1421.    1414.
 8 y_base[4]  582.   582.  28.0  26.6   537.  627.    1.00    1662.    1715.
 9 y_base[5]  604.   603.  26.8  25.5   561.  647.    1.00    1736.    1745.
10 y_base[6]  648.   647.  24.5  23.1   608.  687.    1.00    1939.    1927.
# … with 90 more rows
…
